# MagicaVoxel @ Ephtracy

# material
mtllib street_lamp.mtl
usemtl palette

# normals
vn -1 0 0
vn 1 0 0
vn 0 0 1
vn 0 0 -1
vn 0 -1 0
vn 0 1 0

# texcoords
vt 0.306641 0.5
vt 0.912109 0.5
vt 0.994141 0.5

# verts
v -3 32 2
v -3 32 -1
v -3 33 3
v -3 33 2
v -3 33 -1
v -3 33 -2
v -3 34 3
v -3 34 -2
v -2 32 3
v -2 32 2
v -2 32 -1
v -2 32 -2
v -2 33 3
v -2 33 2
v -2 33 -1
v -2 33 -2
v -1 0 1
v -1 0 -0
v -1 33 1
v -1 33 -0
v -1 34 1
v -1 34 -0
v -1 35 1
v -1 35 -0
v 1 32 2
v 1 32 -1
v 1 33 2
v 1 33 -1
v -2 32 2
v -2 32 -1
v -2 33 2
v -2 33 -1
v 0 0 1
v 0 0 -0
v 0 33 1
v 0 33 -0
v 0 34 1
v 0 34 -0
v 0 35 1
v 0 35 -0
v 1 32 3
v 1 32 2
v 1 32 -1
v 1 32 -2
v 1 33 3
v 1 33 2
v 1 33 -1
v 1 33 -2
v 2 32 2
v 2 32 -1
v 2 33 3
v 2 33 2
v 2 33 -1
v 2 33 -2
v 2 34 3
v 2 34 -2
v -3 33 3
v -3 34 3
v -2 32 3
v -2 33 3
v 1 32 3
v 1 33 3
v 2 33 3
v 2 34 3
v -3 32 2
v -3 33 2
v -2 32 2
v -2 33 2
v 1 32 2
v 1 33 2
v 2 32 2
v 2 33 2
v -1 0 1
v -1 33 1
v -1 34 1
v -1 35 1
v 0 0 1
v 0 33 1
v 0 34 1
v 0 35 1
v -2 32 -1
v -2 33 -1
v 1 32 -1
v 1 33 -1
v -2 32 2
v -2 33 2
v 1 32 2
v 1 33 2
v -1 0 -0
v -1 33 -0
v -1 34 -0
v -1 35 -0
v 0 0 -0
v 0 33 -0
v 0 34 -0
v 0 35 -0
v -3 32 -1
v -3 33 -1
v -2 32 -1
v -2 33 -1
v 1 32 -1
v 1 33 -1
v 2 32 -1
v 2 33 -1
v -3 33 -2
v -3 34 -2
v -2 32 -2
v -2 33 -2
v 1 32 -2
v 1 33 -2
v 2 33 -2
v 2 34 -2
v -1 0 1
v 0 0 1
v -1 0 -0
v 0 0 -0
v -2 32 3
v 1 32 3
v -3 32 2
v -2 32 2
v 1 32 2
v 2 32 2
v -3 32 -1
v -2 32 -1
v 1 32 -1
v 2 32 -1
v -2 32 -2
v 1 32 -2
v -3 33 3
v -2 33 3
v 1 33 3
v 2 33 3
v -3 33 2
v -2 33 2
v 1 33 2
v 2 33 2
v -1 33 1
v 0 33 1
v -1 33 -0
v 0 33 -0
v -3 33 -1
v -2 33 -1
v 1 33 -1
v 2 33 -1
v -3 33 -2
v -2 33 -2
v 1 33 -2
v 2 33 -2
v -3 34 3
v 2 34 3
v -1 34 1
v 0 34 1
v -1 34 -0
v 0 34 -0
v -3 34 -2
v 2 34 -2
v -1 35 1
v 0 35 1
v -1 35 -0
v 0 35 -0

# faces
f 4/2/1 2/2/1 1/2/1
f 5/2/1 2/2/1 4/2/1
f 7/1/1 4/1/1 3/1/1
f 7/1/1 6/1/1 5/1/1
f 7/1/1 5/1/1 4/1/1
f 8/1/1 6/1/1 7/1/1
f 13/2/1 10/2/1 9/2/1
f 14/2/1 10/2/1 13/2/1
f 15/2/1 12/2/1 11/2/1
f 16/2/1 12/2/1 15/2/1
f 19/3/1 18/3/1 17/3/1
f 20/3/1 18/3/1 19/3/1
f 23/3/1 22/3/1 21/3/1
f 24/3/1 22/3/1 23/3/1
f 27/2/1 26/2/1 25/2/1
f 28/2/1 26/2/1 27/2/1
f 29/2/2 30/2/2 31/2/2
f 31/2/2 30/2/2 32/2/2
f 33/3/2 34/3/2 35/3/2
f 35/3/2 34/3/2 36/3/2
f 37/3/2 38/3/2 39/3/2
f 39/3/2 38/3/2 40/3/2
f 41/2/2 42/2/2 45/2/2
f 45/2/2 42/2/2 46/2/2
f 43/2/2 44/2/2 47/2/2
f 47/2/2 44/2/2 48/2/2
f 49/2/2 50/2/2 52/2/2
f 52/2/2 50/2/2 53/2/2
f 51/1/2 52/1/2 55/1/2
f 53/1/2 54/1/2 55/1/2
f 52/1/2 53/1/2 55/1/2
f 55/1/2 54/1/2 56/1/2
f 60/1/3 58/1/3 57/1/3
f 61/2/3 60/2/3 59/2/3
f 62/1/3 58/1/3 60/1/3
f 62/2/3 60/2/3 61/2/3
f 63/1/3 58/1/3 62/1/3
f 64/1/3 58/1/3 63/1/3
f 67/2/3 66/2/3 65/2/3
f 68/2/3 66/2/3 67/2/3
f 71/2/3 70/2/3 69/2/3
f 72/2/3 70/2/3 71/2/3
f 77/3/3 74/3/3 73/3/3
f 78/3/3 74/3/3 77/3/3
f 79/3/3 76/3/3 75/3/3
f 80/3/3 76/3/3 79/3/3
f 83/2/3 82/2/3 81/2/3
f 84/2/3 82/2/3 83/2/3
f 85/2/4 86/2/4 87/2/4
f 87/2/4 86/2/4 88/2/4
f 89/3/4 90/3/4 93/3/4
f 93/3/4 90/3/4 94/3/4
f 91/3/4 92/3/4 95/3/4
f 95/3/4 92/3/4 96/3/4
f 97/2/4 98/2/4 99/2/4
f 99/2/4 98/2/4 100/2/4
f 101/2/4 102/2/4 103/2/4
f 103/2/4 102/2/4 104/2/4
f 105/1/4 106/1/4 108/1/4
f 107/2/4 108/2/4 109/2/4
f 108/1/4 106/1/4 110/1/4
f 109/2/4 108/2/4 110/2/4
f 110/1/4 106/1/4 111/1/4
f 111/1/4 106/1/4 112/1/4
f 115/3/5 114/3/5 113/3/5
f 116/3/5 114/3/5 115/3/5
f 120/2/5 118/2/5 117/2/5
f 121/2/5 118/2/5 120/2/5
f 123/2/5 120/2/5 119/2/5
f 124/2/5 120/2/5 123/2/5
f 125/2/5 122/2/5 121/2/5
f 126/2/5 122/2/5 125/2/5
f 127/2/5 125/2/5 124/2/5
f 128/2/5 125/2/5 127/2/5
f 133/1/5 130/1/5 129/1/5
f 134/1/5 130/1/5 133/1/5
f 135/1/5 132/1/5 131/1/5
f 136/1/5 132/1/5 135/1/5
f 137/1/5 135/1/5 134/1/5
f 138/1/5 135/1/5 137/1/5
f 139/1/5 137/1/5 134/1/5
f 140/1/5 135/1/5 138/1/5
f 142/1/5 139/1/5 134/1/5
f 142/1/5 140/1/5 139/1/5
f 143/1/5 135/1/5 140/1/5
f 143/1/5 140/1/5 142/1/5
f 145/1/5 142/1/5 141/1/5
f 146/1/5 142/1/5 145/1/5
f 147/1/5 144/1/5 143/1/5
f 148/1/5 144/1/5 147/1/5
f 149/1/6 150/1/6 151/1/6
f 151/1/6 150/1/6 152/1/6
f 149/1/6 151/1/6 153/1/6
f 152/1/6 150/1/6 154/1/6
f 149/1/6 153/1/6 155/1/6
f 153/1/6 154/1/6 155/1/6
f 154/1/6 150/1/6 156/1/6
f 155/1/6 154/1/6 156/1/6
f 157/3/6 158/3/6 159/3/6
f 159/3/6 158/3/6 160/3/6
